%YAML 1.1
%TAG !u! tag:unity3d.com,2011:
--- !u!114 &11400000
MonoBehaviour:
  m_ObjectHideFlags: 0
  m_PrefabParentObject: {fileID: 0}
  m_PrefabInternal: {fileID: 0}
  m_GameObject: {fileID: 0}
  m_Enabled: 1
  m_EditorHideFlags: 0
  m_Script: {fileID: -770389242, guid: 4df21bd079886d84699ca7be1316c7a7, type: 3}
  m_Name: Default Material Palette
  m_EditorClassIdentifier: 
  array:
  - {fileID: 2100000, guid: 749c755c34dff46cd8ce27bf8e6c5a23, type: 2}
  - {fileID: 2100000, guid: 4103b389f4f2745be98f1ab181d362d4, type: 2}
  - {fileID: 2100000, guid: c5e78cf0e524d497395c4b3e1f63ae5f, type: 2}
  - {fileID: 2100000, guid: 5e8ecc69867fe47879aefbd5ae20c93a, type: 2}
  - {fileID: 2100000, guid: 9ad0e50cae947411a990f3fb306f5b54, type: 2}
  - {fileID: 2100000, guid: 9c97cbd64154049c1bd600d389f4d418, type: 2}
  - {fileID: 2100000, guid: a730b73db0eef4e5287dcefae7027b0d, type: 2}
  - {fileID: 2100000, guid: 7d8773b68f0504ba7be70cc6ae935c32, type: 2}
  - {fileID: 2100000, guid: 8faf8c59a4f71417fbdfc0e20b854b36, type: 2}
  - {fileID: 2100000, guid: e47db907806add749a535067ee33b6e5, type: 2}
  - {fileID: 0}
