%YAML 1.1
%TAG !u! tag:unity3d.com,2011:
--- !u!114 &11400000
MonoBehaviour:
  m_ObjectHideFlags: 0
  m_PrefabParentObject: {fileID: 0}
  m_PrefabInternal: {fileID: 0}
  m_GameObject: {fileID: 0}
  m_Enabled: 1
  m_EditorHideFlags: 0
  m_Script: {fileID: 146836576, guid: 0472bdc8d6d15384d98f22ee34302f9c, type: 3}
  m_Name: ProBuilderPreferences
  m_EditorClassIdentifier: 
  m_Bool_keys:
  - pbDragSelectWholeElement
  - pbEnableBackfaceSelection
  - pbDefaultOpenInDockableWindow
  - pbIconGUI
  - pbUVMaterialPreview
  - pb_TorusUsesInnerOuterMethod
  m_Int_keys:
  - pbHandleAlignment
  - pbDefaultEditLevel
  - pbDefaultSelectionMode
  - pb_GIWorkflowMode
  - pbDragSelectMode
  - pbExtrudeMethod
  m_Float_keys:
  - pbEditorScroll.x
  - pbEditorScroll.y
  - pbExtrudeDistance
  m_String_keys:
  - pbCurrentMaterialPalette
  - pbVertexColorPrefs1
  m_Color_keys: []
  m_Material_keys: []
  m_Bool_values: 010000010101
  m_Int_values: 020000000000000002000000010000000000000001000000
  m_Float_values:
  - 0
  - 0
  - 0.01
  m_String_values:
  - Assets/ProCore/ProBuilder/Data/Default Material Palette.asset
  - RGBA(1.000, 0.000, 0.000, 1.000)
  m_Color_values: []
  m_Material_values: []
